…
``` r
wbdcovid
```

    ## # A tibble: 89,966 x 38
    ## # Groups:   id [199]
    ##    iso_alpha_3 id    date       vaccines tests confirmed recovered deaths  hosp
    ##    <chr>       <chr> <date>        <dbl> <int>     <int>     <int>  <int> <dbl>
    ##  1 AFG         AFG   2020-01-22       NA    NA        NA        NA     NA    NA
    ##  2 AFG         AFG   2020-01-23       NA    NA        NA        NA     NA    NA
    ##  3 AFG         AFG   2020-01-24       NA    NA        NA        NA     NA    NA
    ##  4 AFG         AFG   2020-01-25       NA    NA        NA        NA     NA    NA
    ##  5 AFG         AFG   2020-01-26       NA    NA        NA        NA     NA    NA
    ##  6 AFG         AFG   2020-01-27       NA    NA        NA        NA     NA    NA
    ##  7 AFG         AFG   2020-01-28       NA    NA        NA        NA     NA    NA
    ##  8 AFG         AFG   2020-01-29       NA    NA        NA        NA     NA    NA
    ##  9 AFG         AFG   2020-01-30       NA    NA        NA        NA     NA    NA
    ## 10 AFG         AFG   2020-01-31       NA    NA        NA        NA     NA    NA
    ## # … with 89,956 more rows, and 29 more variables: vent <int>, icu <int>,
    ## #   population <int>, school_closing <int>, workplace_closing <int>,
    ## #   cancel_events <int>, gatherings_restrictions <int>,
    ## #   transport_closing <int>, stay_home_restrictions <int>,
    ## #   internal_movement_restrictions <int>,
    ## #   international_movement_restrictions <int>, information_campaigns <int>,
    ## #   testing_policy <int>, contact_tracing <int>, stringency_index <dbl>,
    ## #   iso_alpha_2 <chr>, iso_numeric <int>, currency <chr>,
    ## #   administrative_area_level <int>, administrative_area_level_1 <chr>,
…
